Week,Year,Month,Day,Date,StartTime,EndTime,Type,Place,Content
1,2019,10,14,14.10.,1315,1445,Lecture,Felix-Klein-Hörsaal P501 P5.014,"Everything you wanted to know about DH (Manuel says ""Hi""?, also Syllabus)"
1,2019,10,15,15.10.,915,1045,Seminar A,Seminarraum S412 S 4.205,Data Formats & Data Cleaning without programming languages
1,2019,10,15,15.10.,1515,1645,Seminar B,"Rechnerlabor P801 P8.011
",Data Formats & Data Cleaning without programming languages
1,2019,10,15,15.10.,1915,2045,Seminar C,"Seminarraum S214 S 2.206
",Data Formats & Data Cleaning without programming languages
2,2019,10,21,21.10.,1315,1445,Lecture,Felix-Klein-Hörsaal P501 P5.014,Which language do you speak? Overview of programming languages used in Digital Humanities
2,2019,10,22,22.10.,915,1045,Seminar A,Seminarraum S412 S 4.205,Using APIs
2,2019,10,22,22.10.,1515,1645,Seminar B,"Rechnerlabor P801 P8.011
",Using APIs
2,2019,10,22,22.10.,1915,2045,Seminar C,"Seminarraum S214 S 2.206
",Using APIs
3,2019,10,28,28.10.,1315,1445,Lecture,Felix-Klein-Hörsaal P501 P5.014,Linked Data & Microservices in the Humanities
3,2019,10,28,28.10.,1715,2100,"Block Seminar, Group I",Seminarraum S-314,Building Web Applications for DH
3,2019,11,2,2.11.,915,1300,"Block Seminar, Group II","Rechnerlabor P502 P5.02
",Building Web Applications for DH
4,2019,11,4,4.11.,1315,1445,Lecture,Felix-Klein-Hörsaal P501 P5.014,Natural Language Processing for Historical Languages (and other languages too)
4,2019,11,4,4.11.,1715,2100,"Block Seminar, Group III",Seminarraum S-314,Building Web Applications for DH
4,2019,11,5,5.11.,915,1045,Seminar A,Seminarraum S412 S 4.205,Working with High-Dimensional Data
4,2019,11,5,5.11.,1515,1645,Seminar B,"Rechnerlabor P801 P8.011
",Working with High-Dimensional Data
4,2019,11,5,5.11.,1915,2045,Seminar C,"Seminarraum S214 S 2.206
",Working with High-Dimensional Data
4,2019,11,9,9.11.,915,1300,"Block Seminar, Group IV","Rechnerlabor P502 P5.02
",Building Web Applications for DH
5,2019,11,11,11.11.,1315,1445,Lecture,Felix-Klein-Hörsaal P501 P5.014,Topic Modelling & Word Vector Embedding
5,2019,11,12,12.11.,915,1045,Seminar A,Seminarraum S412 S 4.205,Topic Modelling
5,2019,11,12,12.11.,1515,1645,Seminar B,"Rechnerlabor P801 P8.011
",Topic Modelling
5,2019,11,12,12.11.,1915,2045,Seminar C,"Seminarraum S214 S 2.206
",Topic Modelling
6,2019,11,18,18.11.,1315,1445,Lecture,Felix-Klein-Hörsaal P501 P5.014,Working with Geospatial Data
6,2019,11,19,19.11.,915,1045,Seminar A,Seminarraum S412 S 4.205,Working with Geospatial Data
6,2019,11,19,19.11.,1515,1645,Seminar B,"Rechnerlabor P801 P8.011
",Working with Geospatial Data
6,2019,11,19,19.11.,1915,2045,Seminar C,"Seminarraum S214 S 2.206
",Working with Geospatial Data
7,2019,11,25,25.11.,1315,1445,Lecture,Felix-Klein-Hörsaal P501 P5.014,Social Network Analysis
7,2019,11,26,26.11.,915,1045,Seminar A,Seminarraum S412 S 4.205,Social Network Analysis
7,2019,11,26,26.11.,1515,1645,Seminar B,"Rechnerlabor P801 P8.011
",Social Network Analysis
7,2019,11,26,26.11.,1915,2045,Seminar C,"Seminarraum S214 S 2.206
",Social Network Analysis
8,2019,12,2,2.12.,0,2399,No Class,No Class,Dies Academicus: Which DH Projects interest you
8,2019,12,3,3.12.,915,1045,Seminar A,Seminarraum S412 S 4.205,Student Presentations / Discussion
8,2019,12,3,3.12.,1515,1645,Seminar B,"Rechnerlabor P801 P8.011
",Student Presentations / Discussion
8,2019,12,3,3.12.,1915,2045,Seminar C,"Seminarraum S214 S 2.206
",Student Presentations / Discussion
9,2019,12,9,9.12.,1315,1445,Lecture,Felix-Klein-Hörsaal P501 P5.014,Challenges of Data Curation & Corpus Building
9,2019,12,10,10.12.,915,1045,Seminar A,Seminarraum S412 S 4.205,Building a Data Reading Environment
9,2019,12,10,10.12.,1515,1645,Seminar B,"Rechnerlabor P801 P8.011
",Building a Data Reading Environment
9,2019,12,10,10.12.,1915,2045,Seminar C,"Seminarraum S214 S 2.206
",Building a Data Reading Environment
10,2019,12,16,16.12.,1315,1445,Lecture,Felix-Klein-Hörsaal P501 P5.014,Citizen Science in DH
10,2019,12,17,17.12.,915,1045,Seminar A,Seminarraum S412 S 4.205,Citizen Science in DH
10,2019,12,17,17.12.,1515,1645,Seminar B,"Rechnerlabor P801 P8.011
",Citizen Science in DH
10,2019,12,17,17.12.,1915,2045,Seminar C,"Seminarraum S214 S 2.206
",Citizen Science in DH